Simple Emax model fit with Stan
…
response.pred <- posterior_predict(fit.emax, newdata = c(0, 100, 1000), returnType = "tibble")
#> Warning: The `returnType` argument of `posterior_predict()` is deprecated as of
#> rstanemax 0.1.8.
#> This warning is displayed once per session.
#> Call `lifecycle::last_lifecycle_warnings()` to see where this warning was
#> generated.

response.pred %>% select(mcmcid, exposure, respHat, response)
#> # A tibble: 3,000 × 4
#>    mcmcid exposure   respHat response
#>     <int>    <dbl> <dbl[1d]>    <dbl>
#>  1      1        0      5.34     7.51
#>  2      1      100     65.7     92.8 
#>  3      1     1000     93.8     86.8 
#>  4      2        0      8.20    -5.50
#>  5      2      100     50.7     47.3 
#>  6      2     1000     90.3     83.1 
#>  7      3        0      1.41   -14.3 
#>  8      3      100     60.7     60.8 
#>  9      3     1000     92.7     85.5 
#> 10      4        0      4.98    40.1 
#> # ℹ 2,990 more rows

You can also get quantiles of predictions with
posterior_predict_quantile() function.

resp.pred.quantile <- posterior_predict_quantile(fit.emax, newdata = seq(0, 5000, by = 100))
resp.pred.quantile
#> # A tibble: 51 × 11
#>    exposure covemax covec50 cove0 Covariates ci_low ci_med ci_high pi_low pi_med
#>       <dbl> <fct>   <fct>   <fct> <chr>       <dbl>  <dbl>   <dbl>  <dbl>  <dbl>
#>  1        0 1       1       1     ""          -2.29   5.61    13.1  -24.2   5.75
#>  2      100 1       1       1     ""          52.2   58.7     64.5   30.0  58.3 
#>  3      200 1       1       1     ""          67.6   72.7     77.4   46.5  72.8 
#>  4      300 1       1       1     ""          74.5   79.4     83.8   51.4  78.9 
#>  5      400 1       1       1     ""          78.5   83.1     87.7   57.1  84.0 
#>  6      500 1       1       1     ""          80.8   85.6     90.6   59.9  87.3 
#>  7      600 1       1       1     ""          82.2   87.4     92.6   60.6  87.3 
#>  8      700 1       1       1     ""          83.4   88.6     94.2   61.0  88.5 
#>  9      800 1       1       1     ""          84.2   89.6     95.3   61.9  88.8 
#> 10      900 1       1       1     ""          84.8   90.4     96.4   63.1  91.2 
#> # ℹ 41 more rows
#> # ℹ 1 more variable: pi_high <dbl>
…
Posterior draws of Emax model parameters can be extracted with
extract_param() function.

posterior.fit.emax <- extract_param(fit.emax)
posterior.fit.emax
#> # A tibble: 1,000 × 6
#>    mcmcid  emax    e0  ec50     gamma     sigma
#>     <int> <dbl> <dbl> <dbl> <dbl[1d]> <dbl[1d]>
#>  1      1  93.3  5.34  54.7         1      16.8
#>  2      2  91.6  8.20 115.          1      16.5
#>  3      3  97.2  1.41  63.7         1      15.2
#>  4      4  83.3  4.98  47.2         1      16.1
#>  5      5  94.2  2.13  63.9         1      14.1
#>  6      6  86.7  9.15  70.1         1      15.0
#>  7      7 104.  -5.00  54.1         1      15.5
#>  8      8  96.5  7.98  93.0         1      18.0
#>  9      9  94.5  3.74  98.4         1      16.0
#> 10     10  94.5  5.91  94.1         1      17.8
#> # ℹ 990 more rows
…
